{
  "masterDomain": "cacheator.com",
  "virtualDomainsBasePath": "/hostedApps/",
  "offlinerPath": "../offliner/",
  "masterDomainViews": {
    "mainForm": "mainForm",
    "appCreated": "appCreated",
    "appList": "appList",
    "appAdmin": "appAdmin",
    "errorMessage": "errorMessage"
  },
  "port": 4000,
  "publicPort": 4000,
  "sslPort": 4443,
  "sslCredentials": {
    "certificate": "../certificates/server.crt",
    "key": "../certificates/server.key"
  },
  "piwik": {
    "server": "http://piwik.tid.ovh:8080",
    "siteId": 0,
    "authCode": ""
  }
}
